ZVS Push-Pull_LLC
  Разделение магнитных полей первички и вторички зазором
как в LLC полумосте. Первичка и вторичка намотаны на разных половинках сердечника

  Для начала обычная намотка:
//------------------------------------------------------------------------------
	Двухдроссельная схема.
Резонансный конденсатор: 3 шт 47 нФ х 1 кВ CBB81.
Резонансные дроссели:
Lr1=Lr2. Индуктивность 10,56 мкГн (тест Ipk 4,54 А в Flyback)
Сердечник E25/13/7 N87 EPCOS. Зазор 2,0 мм (текстолит 1 мм).
13 витков 3 х d=0,56 мм. Слои: 7+6 витков.
Межслойная изоляция: 2 слоя скотча.
Внешняя изоляция: 2 слоя скотча.
Провода нескручены, просто уложены рядом. 
Сопротивление обмотки 14,5 мОм (1 А). Длина провода 0,64 м.

Трансформатор:
Сердечник E30/15/7 N87 EPCOS без зазора.
Расчетная индуктивность вторички 155 мкГн
Сначала обмотка III (вторичка) 10 витков проводом 2x0,56 мм, длина провода 0,5 м.
Сопротивление 17 мОм (1 А).
Потом 3 слоя скотча.
Потом обмотка 2х 5 витков проводом 3x0,56 мм (6 проводов параллельно)

Частота запуска 111,2 кГц для устойчивой работы (компараторы не работают).
Рабочая частота 111,3 кГц (погрешность измерения осциллографа):
U1=12,01 В, I1=2,99 А; U2=22,11 В, I2=1,43 А (клещи UT204+). КПД=88,0%.
Потребление схемы управления 11,78 В 30,8 мА. 
Рабочая частота 113,1 кГц:
U1=12,01 В, I1=3,00 А; U2=22,14 В, I2=1,44 А (клещи UT204+). КПД=88,5%.
//------------------------------------------------------------------------------
Однодроссельная схема
Трансформатор тот же, но с зазором:
Сердечник E30/15/7 N87 EPCOS, зазор 0,5 мм (2x0,2+2x0,05 мм).
Расчетная индуктивность вторички 155 мкГн
Сначала обмотка III (вторичка) 10 витков проводом 2x0,56 мм, длина провода 0,5 м.
Сопротивление 17 мОм (1 А).
Потом 3 слоя скотча.
Потом обмотка 2х 5 витков проводом 3x0,56 мм (6 проводов параллельно).
Первичка выполняет роль резонансного дросселя.
Резонансный конденсатор: 3 шт 47 нФ х 1 кВ CBB81.
  Дроссель – фильтр:
От его индуктивности резонансная частота слабо зависит.
Сердечник E20/10/6 N87 EPCOS, зазор 0,6 мм (2x0,1+2x0,2 мм).
15 витков 3 х d=0,56 мм. Слои: 5+5+5 витков.
Межслойная изоляция: 1 слой скотча.
Индуктивность: 20,46 мкГн.
Сопротивление обмотки 15 мОм (1 А). Длина провода 0,68 м.

	Дроссель после мостового выпрямителя:
Сердечник E20/10/6 N87 EPCOS, зазор 0,3 мм (2x0,1+2x0,05 мм).
12 витков 3 х d=0,56 мм. Слои: 4+4+4 витков.
Межслойная изоляция: 2 слоя скотча.
Внешняя изоляция: 2 слоя скотча.
Провода не скручены, просто уложены рядом. 
Индуктивность: 21,81 мкГн.
Сопротивление обмотки 12,4 мОм (1 А). Длина провода 0,55 м.

Рабочая частота 107,1 кГц (компараторы не работают).
U1=12,18 В, I1=2,93 А; U2=22,10 В, I2=1,43 А (клещи UT204+). КПД=88,6%.
Потребление схемы управления 11,78 В 30,8 мА. 
Рабочая частота 108,3 кГц:
U1=12,17 В, I1=2,94 А; U2=22,10 В, I2=1,43 А (клещи UT204+). КПД=88,3%.
//------------------------------------------------------------------------------
Повторный тест (регулировка частоты вручную):
U1=12,18 В, I1=0,05 А; U2=37,26 В, I2=0,00 А  96,9 кГц
U1=12,18 В, I1=0,51 А; U2=29,59 В, I2=0,17 А  98,9 кГц
U1=12,18 В, I1=2,87 А; U2=22,06 В, I2=1,43 А 106,9 кГц
//------------------------------------------------------------------------------
Сердечник E30/15/7 N87 EPCOS, зазор 0,6 мм (2x0,3 мм)
На верхней половине каркаса вторичка 20 витков (слои: 10+10) d=0,56 мм
На нижней половине каркаса первичка 2х9 витков (слои: 5+4) d=0,56 мм

зазор 0,6 мм (2x0,3 мм):
U1=12,33 В, I1=1,12 А; U2=13,45 В, I2=0,87 А 78,5 кГц
  Увеличение индуктивности дросселя L2: 21,81+2х10,56 мкГн
U1=12,19 В, I1=1,15 А; U2=13,59 В, I2=0,88 А 76,6 кГц

зазор 0,8 мм (2x0,4 мм):
L2: 21,81 мкГн
U1=12,21 В, I1=1,05 А; U2=12,80 В, I2=0,82 А 80,9 кГц
L2: 21,81+2х10,56 мкГн
U1=12,20 В, I1=1,08 А; U2=13,05 В, I2=0,84 А 79,2 кГц

на вторичке 3х47 нФ х 1 кВ CBB81, L2:: 21,81+2х10,56 мкГн
U1=12,02 В, I1=3,33 А; U2=22,07 В, I2=1,43 А 110,1 кГц

//------------------------------------------------------------------------------
Сердечник E42/21/20 N87 EPCOS.
Затворные резисторы 15 Ом, демпферы 1 Ом 1 Вт +1,0 нФ х  1 кВ
Сначала обмотка III (вторичка) 4 витков проводом 4x0,56 мм.
Потом 3 слоя скотча.
Потом обмотка 2х 2 витков проводом 3x0,56 мм (6 проводов скручены).
Резонансный конденсатор: 47+22+4,7 нФ  х 1 кВ CBB81

зазор 0,6 мм C1=47+22+4,7 нФ, C2=0:
14,67 В 2,24 А 21,32 В 1,38 А 200,8 кГц КПД=89,5%
//------------------------------------------------------------------------------
Высоковольтный трансформатор: E30/15/7 материал N87 
вторичка: 15 слоев по 50 витков=750 витков d=0,125 мм. Сопротивление вторичной обмотки RII=44,7 Ом (длина провода примерно 31,9 м т.к  сопротивление 1м - 1,4 Ом). 
	Потом 2 слоя изоляции и намотана первичная обмотка I - 15 витков d=0,61 мм.

//------------------------------------------------------------------------------
Сердечник E42/21/20 N87 EPCOS, зазор 0,8 мм=2х(0,3+0,1) Бумага и скотч.
Без скотча сопротивление изоляции между половинками около 12 МОм 550 В.
Первичка и вторичка намотаны на разных половинках сердечника
Вторичка: 6 витков проводом 4x0,56 мм (слои:3+3), длина провода 0,61 м.
Первичка: 2х 3 витков проводом 3x0,56 мм (6 проводов скручены) 0,49 м.

На каждую половинку на центральный керн по бокам приклеена алюминивая фольга.
Емкость между половинками:
25 пФ (UNIT UT890C). Емкость щупов 0 пФ
35 пФ (UNIT UT39). Емкость проводов с крокодилами: 26 пФ (вычтена)
Емкость между первичкой и вторичкой: 26 пФ
Емкость между вторичкой и фольгой: 10 пФ
Во всех измерениях емкости первичка и вторичка закорочены перемычками с крокодилами.

Тест сопротивления:
UNIT UT890C: замер на фольге: 24 кОм, замер просто щупами:92 кОм
Тест от БП через  1кОм:
 5,00 В 0,362 мА
10,03 В 1,134 мА
ток сильно зависит от прижатия фольги к ферриту
20,00 В 4,74 мА

//------------------------------------------------------------------------------
Сердечник E42/21/20 N87 EPCOS, дроссели L1= 20,46 мкГн, L2 =42,93 мкГн
Первичка и вторичка намотаны на разных половинках сердечника
Затворные резисторы 10 Ом, демпферы 1 Ом 1 Вт +2,2 нФ х  1 кВ
Вторичка: 4 витков проводом 4x0,56 мм.
Первичка: 2х 2 витков проводом 3x0,56 мм (6 проводов скручены).
Резонансный конденсатор: 47+22+4,7 нФ  х 1 кВ CBB81
зазор 1,2 мм:

вторичка 2 витков проводом 5x0,56 мм.
первичка 2х1 витков проводом 5x0,56 мм. зазор 1,2 мм:
Затворные резисторы 7,5 Ом, демпферы на стоках 1 Ом 1 Вт +470 пФ х 2 кВ
Резонансный конденсатор: С1=22+22=44 нФ  х 1 кВ CBB81
C2=0	       14,71 В 1,72 А 17,76 В 1,15 А 588,2 кГц КПД=80,7%
Конденсатор последовательно с вторичкой:
14,70 В 1,85 А 19,08 В 1,24 А 238,7 кГц

2х22+2,2 14,70 В 2,01 А 19,18 В 1,24 А 506,1 кГц
2х22+4,7 14,70 В 2,01 А 19,17 В 1,24 А 506,1 кГц
//------------------------------------------------------------------------------
ZVS_drv_BJT_1f2_1Mhz_0.asc
  без нагрузки:
L4=L5=10.6u
C13=C14=10n (параллельно стокам)
L11=12u (индуктивность первички)
частота без первички: 385,2 кГц, с первичкой 12 мкГн: 602,6 кГц
с первичкой 28 мкГн: 489,8 кГц



